0 info it worked if it ends with ok
1 verbose cli [ 'C:\\Program Files\\nodejs\\\\node.exe',
1 verbose cli   'C:\\Program Files\\nodejs\\node_modules\\npm\\bin\\npm-cli.js',
1 verbose cli   'install',
1 verbose cli   'react-bootstrap' ]
2 info using npm@1.4.28
3 info using node@v0.10.34
4 verbose node symlink C:\Program Files\nodejs\\node.exe
5 verbose cache add [ 'react-bootstrap', null ]
6 verbose cache add name=undefined spec="react-bootstrap" args=["react-bootstrap",null]
7 verbose parsed url { protocol: null,
7 verbose parsed url   slashes: null,
7 verbose parsed url   auth: null,
7 verbose parsed url   host: null,
7 verbose parsed url   port: null,
7 verbose parsed url   hostname: null,
7 verbose parsed url   hash: null,
7 verbose parsed url   search: null,
7 verbose parsed url   query: null,
7 verbose parsed url   pathname: 'react-bootstrap',
7 verbose parsed url   path: 'react-bootstrap',
7 verbose parsed url   href: 'react-bootstrap' }
8 silly lockFile 71ffd37b-react-bootstrap react-bootstrap
9 verbose lock react-bootstrap C:\Users\fubian\AppData\Roaming\npm-cache\71ffd37b-react-bootstrap.lock
10 silly lockFile 71ffd37b-react-bootstrap react-bootstrap
11 silly lockFile 71ffd37b-react-bootstrap react-bootstrap
12 verbose addNamed [ 'react-bootstrap', '' ]
13 verbose addNamed [ null, '*' ]
14 silly lockFile 088a9b35-react-bootstrap react-bootstrap@
15 verbose lock react-bootstrap@ C:\Users\fubian\AppData\Roaming\npm-cache\088a9b35-react-bootstrap.lock
16 silly addNameRange { name: 'react-bootstrap', range: '*', hasData: false }
17 verbose request where is /react-bootstrap
18 verbose request registry https://registry.npmjs.org/
19 verbose request id 9f1c3a47dc3c2ea9
20 verbose url raw /react-bootstrap
21 verbose url resolving [ 'https://registry.npmjs.org/', './react-bootstrap' ]
22 verbose url resolved https://registry.npmjs.org/react-bootstrap
23 verbose request where is https://registry.npmjs.org/react-bootstrap
24 info trying registry request attempt 1 at 15:04:03
25 http GET https://registry.npmjs.org/react-bootstrap
26 http 200 https://registry.npmjs.org/react-bootstrap
27 silly registry.get cb [ 200,
27 silly registry.get   { date: 'Thu, 15 Jan 2015 08:03:54 GMT',
27 silly registry.get     server: 'CouchDB/1.5.0 (Erlang OTP/R16B03)',
27 silly registry.get     etag: '"CUAFELFOLGNUCJPK36K8CPPCU"',
27 silly registry.get     'content-type': 'application/json',
27 silly registry.get     'cache-control': 'max-age=60',
27 silly registry.get     'content-length': '29186',
27 silly registry.get     'accept-ranges': 'bytes',
27 silly registry.get     via: '1.1 varnish',
27 silly registry.get     age: '0',
27 silly registry.get     'x-served-by': 'cache-sjc3122-SJC',
27 silly registry.get     'x-cache': 'HIT',
27 silly registry.get     'x-cache-hits': '1',
27 silly registry.get     'x-timer': 'S1421309034.290641,VS0,VE152',
27 silly registry.get     vary: 'Accept',
27 silly registry.get     'keep-alive': 'timeout=10, max=50',
27 silly registry.get     connection: 'Keep-Alive' } ]
28 silly addNameRange number 2 { name: 'react-bootstrap', range: '*', hasData: true }
29 silly addNameRange versions [ 'react-bootstrap',
29 silly addNameRange   [ '0.2.0',
29 silly addNameRange     '0.3.0',
29 silly addNameRange     '0.4.0',
29 silly addNameRange     '0.4.2',
29 silly addNameRange     '0.5.0',
29 silly addNameRange     '0.5.1',
29 silly addNameRange     '0.5.2',
29 silly addNameRange     '0.6.2',
29 silly addNameRange     '0.7.0',
29 silly addNameRange     '0.6.0',
29 silly addNameRange     '0.6.1',
29 silly addNameRange     '0.7.1',
29 silly addNameRange     '0.7.2',
29 silly addNameRange     '0.8.0',
29 silly addNameRange     '0.8.1',
29 silly addNameRange     '0.8.2',
29 silly addNameRange     '0.9.0',
29 silly addNameRange     '0.10.0',
29 silly addNameRange     '0.10.1',
29 silly addNameRange     '0.10.2',
29 silly addNameRange     '0.11.0',
29 silly addNameRange     '0.11.1',
29 silly addNameRange     '0.12.0',
29 silly addNameRange     '0.13.0',
29 silly addNameRange     '0.13.1',
29 silly addNameRange     '0.13.2' ] ]
30 verbose addNamed [ 'react-bootstrap', '0.13.2' ]
31 verbose addNamed [ '0.13.2', '0.13.2' ]
32 silly lockFile 0abb4e8a-react-bootstrap-0-13-2 react-bootstrap@0.13.2
33 verbose lock react-bootstrap@0.13.2 C:\Users\fubian\AppData\Roaming\npm-cache\0abb4e8a-react-bootstrap-0-13-2.lock
34 silly lockFile 389965b8-strap-react-bootstrap-0-13-2-tgz https://registry.npmjs.org/react-bootstrap/-/react-bootstrap-0.13.2.tgz
35 verbose lock https://registry.npmjs.org/react-bootstrap/-/react-bootstrap-0.13.2.tgz C:\Users\fubian\AppData\Roaming\npm-cache\389965b8-strap-react-bootstrap-0-13-2-tgz.lock
36 verbose addRemoteTarball [ 'https://registry.npmjs.org/react-bootstrap/-/react-bootstrap-0.13.2.tgz',
36 verbose addRemoteTarball   'fb2a6b00d1ad2898cff9c7a7c19b99e383512e6f' ]
37 info retry fetch attempt 1 at 15:04:05
38 verbose fetch to= C:\Users\fubian\AppData\Local\Temp\npm-12272-zT9jFeVM\registry.npmjs.org\react-bootstrap\-\react-bootstrap-0.13.2.tgz
39 http GET https://registry.npmjs.org/react-bootstrap/-/react-bootstrap-0.13.2.tgz
40 http 200 https://registry.npmjs.org/react-bootstrap/-/react-bootstrap-0.13.2.tgz
41 silly lockFile 389965b8-strap-react-bootstrap-0-13-2-tgz https://registry.npmjs.org/react-bootstrap/-/react-bootstrap-0.13.2.tgz
42 silly lockFile 389965b8-strap-react-bootstrap-0-13-2-tgz https://registry.npmjs.org/react-bootstrap/-/react-bootstrap-0.13.2.tgz
43 silly lockFile 0abb4e8a-react-bootstrap-0-13-2 react-bootstrap@0.13.2
44 silly lockFile 0abb4e8a-react-bootstrap-0-13-2 react-bootstrap@0.13.2
45 silly lockFile 088a9b35-react-bootstrap react-bootstrap@
46 silly lockFile 088a9b35-react-bootstrap react-bootstrap@
47 silly resolved [ { name: 'react-bootstrap',
47 silly resolved     version: '0.13.2',
47 silly resolved     description: 'Bootstrap 3 components build with React',
47 silly resolved     homepage: 'http://react-bootstrap.github.io/',
47 silly resolved     main: 'main.js',
47 silly resolved     keywords: [ 'react', 'ecosystem-react', 'react-component', 'bootstrap' ],
47 silly resolved     author: { name: 'Stephen J. Collings', email: 'stevoland@gmail.com' },
47 silly resolved     license: 'MIT',
47 silly resolved     repository:
47 silly resolved      { type: 'git',
47 silly resolved        url: 'https://github.com/react-bootstrap/react-bootstrap' },
47 silly resolved     bugs: { url: 'https://github.com/react-bootstrap/react-bootstrap/issues' },
47 silly resolved     peerDependencies: { react: '>=0.12' },
47 silly resolved     gitHead: 'c532bd1bd37d5ad5e204e290073a35837da251cf',
47 silly resolved     _id: 'react-bootstrap@0.13.2',
47 silly resolved     scripts: {},
47 silly resolved     _shasum: 'fb2a6b00d1ad2898cff9c7a7c19b99e383512e6f',
47 silly resolved     _from: 'react-bootstrap@',
47 silly resolved     _npmVersion: '1.4.28',
47 silly resolved     _npmUser: { name: 'mtscout6', email: 'mtscout6@gmail.com' },
47 silly resolved     maintainers: [ [Object], [Object] ],
47 silly resolved     dist:
47 silly resolved      { shasum: 'fb2a6b00d1ad2898cff9c7a7c19b99e383512e6f',
47 silly resolved        tarball: 'http://registry.npmjs.org/react-bootstrap/-/react-bootstrap-0.13.2.tgz' },
47 silly resolved     directories: {},
47 silly resolved     _resolved: 'https://registry.npmjs.org/react-bootstrap/-/react-bootstrap-0.13.2.tgz' } ]
48 info install react-bootstrap@0.13.2 into C:\xampp\htdocs\react-time-tracker
49 info installOne react-bootstrap@0.13.2
50 verbose node_modules\react-bootstrap unbuild
51 verbose tar unpack C:\Users\fubian\AppData\Roaming\npm-cache\react-bootstrap\0.13.2\package.tgz
52 silly lockFile 3f69b1fc-ker-node-modules-react-bootstrap tar://C:\xampp\htdocs\react-time-tracker\node_modules\react-bootstrap
53 verbose lock tar://C:\xampp\htdocs\react-time-tracker\node_modules\react-bootstrap C:\Users\fubian\AppData\Roaming\npm-cache\3f69b1fc-ker-node-modules-react-bootstrap.lock
54 silly lockFile f2531923-act-bootstrap-0-13-2-package-tgz tar://C:\Users\fubian\AppData\Roaming\npm-cache\react-bootstrap\0.13.2\package.tgz
55 verbose lock tar://C:\Users\fubian\AppData\Roaming\npm-cache\react-bootstrap\0.13.2\package.tgz C:\Users\fubian\AppData\Roaming\npm-cache\f2531923-act-bootstrap-0-13-2-package-tgz.lock
56 silly gunzTarPerm modes [ '777', '666' ]
57 silly gunzTarPerm extractEntry package.json
58 silly gunzTarPerm modified mode [ 'package.json', 420, 438 ]
59 silly gunzTarPerm extractEntry .npmignore
60 silly gunzTarPerm modified mode [ '.npmignore', 420, 438 ]
61 silly gunzTarPerm extractEntry README.md
62 silly gunzTarPerm modified mode [ 'README.md', 420, 438 ]
63 silly gunzTarPerm extractEntry LICENSE
64 silly gunzTarPerm modified mode [ 'LICENSE', 420, 438 ]
65 silly gunzTarPerm extractEntry ListGroup.js
66 silly gunzTarPerm modified mode [ 'ListGroup.js', 420, 438 ]
67 silly gunzTarPerm extractEntry ListGroupItem.js
68 silly gunzTarPerm modified mode [ 'ListGroupItem.js', 420, 438 ]
69 silly gunzTarPerm extractEntry Affix.js
70 silly gunzTarPerm modified mode [ 'Affix.js', 420, 438 ]
71 silly gunzTarPerm extractEntry Label.js
72 silly gunzTarPerm modified mode [ 'Label.js', 420, 438 ]
73 silly gunzTarPerm extractEntry ModalTrigger.js
74 silly gunzTarPerm modified mode [ 'ModalTrigger.js', 420, 438 ]
75 silly gunzTarPerm extractEntry Nav.js
76 silly gunzTarPerm modified mode [ 'Nav.js', 420, 438 ]
77 silly gunzTarPerm extractEntry NavItem.js
78 silly gunzTarPerm modified mode [ 'NavItem.js', 420, 438 ]
79 silly gunzTarPerm extractEntry Navbar.js
80 silly gunzTarPerm modified mode [ 'Navbar.js', 420, 438 ]
81 silly gunzTarPerm extractEntry OverlayMixin.js
82 silly gunzTarPerm modified mode [ 'OverlayMixin.js', 420, 438 ]
83 silly gunzTarPerm extractEntry OverlayTrigger.js
84 silly gunzTarPerm modified mode [ 'OverlayTrigger.js', 420, 438 ]
85 silly gunzTarPerm extractEntry Jumbotron.js
86 silly gunzTarPerm modified mode [ 'Jumbotron.js', 420, 438 ]
87 silly gunzTarPerm extractEntry PageHeader.js
88 silly gunzTarPerm modified mode [ 'PageHeader.js', 420, 438 ]
89 silly gunzTarPerm extractEntry Interpolate.js
90 silly gunzTarPerm modified mode [ 'Interpolate.js', 420, 438 ]
91 silly gunzTarPerm extractEntry PageItem.js
92 silly gunzTarPerm modified mode [ 'PageItem.js', 420, 438 ]
93 silly gunzTarPerm extractEntry Input.js
94 silly gunzTarPerm modified mode [ 'Input.js', 420, 438 ]
95 silly gunzTarPerm extractEntry Pager.js
96 silly gunzTarPerm modified mode [ 'Pager.js', 420, 438 ]
97 silly gunzTarPerm extractEntry Grid.js
98 silly gunzTarPerm modified mode [ 'Grid.js', 420, 438 ]
99 silly gunzTarPerm extractEntry Panel.js
100 silly gunzTarPerm modified mode [ 'Panel.js', 420, 438 ]
101 silly gunzTarPerm extractEntry Glyphicon.js
102 silly gunzTarPerm modified mode [ 'Glyphicon.js', 420, 438 ]
103 silly gunzTarPerm extractEntry PanelGroup.js
104 silly gunzTarPerm modified mode [ 'PanelGroup.js', 420, 438 ]
105 silly gunzTarPerm extractEntry FadeMixin.js
106 silly gunzTarPerm modified mode [ 'FadeMixin.js', 420, 438 ]
107 silly gunzTarPerm extractEntry Popover.js
108 silly gunzTarPerm modified mode [ 'Popover.js', 420, 438 ]
109 silly gunzTarPerm extractEntry DropdownStateMixin.js
110 silly gunzTarPerm modified mode [ 'DropdownStateMixin.js', 420, 438 ]
111 silly gunzTarPerm extractEntry ProgressBar.js
112 silly gunzTarPerm modified mode [ 'ProgressBar.js', 420, 438 ]
113 silly gunzTarPerm extractEntry DropdownMenu.js
114 silly gunzTarPerm modified mode [ 'DropdownMenu.js', 420, 438 ]
115 silly gunzTarPerm extractEntry AffixMixin.js
116 silly gunzTarPerm modified mode [ 'AffixMixin.js', 420, 438 ]
117 silly gunzTarPerm extractEntry DropdownButton.js
118 silly gunzTarPerm modified mode [ 'DropdownButton.js', 420, 438 ]
119 silly gunzTarPerm extractEntry Row.js
120 silly gunzTarPerm modified mode [ 'Row.js', 420, 438 ]
121 silly gunzTarPerm extractEntry CollapsableMixin.js
122 silly gunzTarPerm modified mode [ 'CollapsableMixin.js', 420, 438 ]
123 silly gunzTarPerm extractEntry SplitButton.js
124 silly gunzTarPerm modified mode [ 'SplitButton.js', 420, 438 ]
125 silly gunzTarPerm extractEntry Col.js
126 silly gunzTarPerm modified mode [ 'Col.js', 420, 438 ]
127 silly gunzTarPerm extractEntry SubNav.js
128 silly gunzTarPerm modified mode [ 'SubNav.js', 420, 438 ]
129 silly gunzTarPerm extractEntry CarouselItem.js
130 silly gunzTarPerm modified mode [ 'CarouselItem.js', 420, 438 ]
131 silly gunzTarPerm extractEntry TabPane.js
132 silly gunzTarPerm modified mode [ 'TabPane.js', 420, 438 ]
133 silly gunzTarPerm extractEntry Carousel.js
134 silly gunzTarPerm modified mode [ 'Carousel.js', 420, 438 ]
135 silly gunzTarPerm extractEntry TabbedArea.js
136 silly gunzTarPerm modified mode [ 'TabbedArea.js', 420, 438 ]
137 silly gunzTarPerm extractEntry ButtonToolbar.js
138 silly gunzTarPerm modified mode [ 'ButtonToolbar.js', 420, 438 ]
139 silly gunzTarPerm extractEntry Table.js
140 silly gunzTarPerm modified mode [ 'Table.js', 420, 438 ]
141 silly gunzTarPerm extractEntry ButtonGroup.js
142 silly gunzTarPerm modified mode [ 'ButtonGroup.js', 420, 438 ]
143 silly gunzTarPerm extractEntry Tooltip.js
144 silly gunzTarPerm modified mode [ 'Tooltip.js', 420, 438 ]
145 silly gunzTarPerm extractEntry Button.js
146 silly gunzTarPerm modified mode [ 'Button.js', 420, 438 ]
147 silly gunzTarPerm extractEntry Well.js
148 silly gunzTarPerm modified mode [ 'Well.js', 420, 438 ]
149 silly gunzTarPerm extractEntry BootstrapMixin.js
150 silly gunzTarPerm modified mode [ 'BootstrapMixin.js', 420, 438 ]
151 silly gunzTarPerm extractEntry constants.js
152 silly gunzTarPerm modified mode [ 'constants.js', 420, 438 ]
153 silly gunzTarPerm extractEntry Badge.js
154 silly gunzTarPerm modified mode [ 'Badge.js', 420, 438 ]
155 silly gunzTarPerm extractEntry main.js
156 silly gunzTarPerm modified mode [ 'main.js', 420, 438 ]
157 silly gunzTarPerm extractEntry Alert.js
158 silly gunzTarPerm modified mode [ 'Alert.js', 420, 438 ]
159 silly gunzTarPerm extractEntry Accordion.js
160 silly gunzTarPerm modified mode [ 'Accordion.js', 420, 438 ]
161 silly gunzTarPerm extractEntry Modal.js
162 silly gunzTarPerm modified mode [ 'Modal.js', 420, 438 ]
163 silly gunzTarPerm extractEntry MenuItem.js
164 silly gunzTarPerm modified mode [ 'MenuItem.js', 420, 438 ]
165 silly gunzTarPerm extractEntry utils/CustomPropTypes.js
166 silly gunzTarPerm modified mode [ 'utils/CustomPropTypes.js', 420, 438 ]
167 silly gunzTarPerm extractEntry utils/EventListener.js
168 silly gunzTarPerm modified mode [ 'utils/EventListener.js', 420, 438 ]
169 silly gunzTarPerm extractEntry utils/Object.assign.js
170 silly gunzTarPerm modified mode [ 'utils/Object.assign.js', 420, 438 ]
171 silly gunzTarPerm extractEntry utils/TransitionEvents.js
172 silly gunzTarPerm modified mode [ 'utils/TransitionEvents.js', 420, 438 ]
173 silly gunzTarPerm extractEntry utils/ValidComponentChildren.js
174 silly gunzTarPerm modified mode [ 'utils/ValidComponentChildren.js', 420, 438 ]
175 silly gunzTarPerm extractEntry utils/classSet.js
176 silly gunzTarPerm modified mode [ 'utils/classSet.js', 420, 438 ]
177 silly gunzTarPerm extractEntry utils/cloneWithProps.js
178 silly gunzTarPerm modified mode [ 'utils/cloneWithProps.js', 420, 438 ]
179 silly gunzTarPerm extractEntry utils/createChainedFunction.js
180 silly gunzTarPerm modified mode [ 'utils/createChainedFunction.js', 420, 438 ]
181 silly gunzTarPerm extractEntry utils/domUtils.js
182 silly gunzTarPerm modified mode [ 'utils/domUtils.js', 420, 438 ]
183 silly gunzTarPerm extractEntry utils/joinClasses.js
184 silly gunzTarPerm modified mode [ 'utils/joinClasses.js', 420, 438 ]
185 silly lockFile 3f69b1fc-ker-node-modules-react-bootstrap tar://C:\xampp\htdocs\react-time-tracker\node_modules\react-bootstrap
186 silly lockFile 3f69b1fc-ker-node-modules-react-bootstrap tar://C:\xampp\htdocs\react-time-tracker\node_modules\react-bootstrap
187 silly lockFile f2531923-act-bootstrap-0-13-2-package-tgz tar://C:\Users\fubian\AppData\Roaming\npm-cache\react-bootstrap\0.13.2\package.tgz
188 silly lockFile f2531923-act-bootstrap-0-13-2-package-tgz tar://C:\Users\fubian\AppData\Roaming\npm-cache\react-bootstrap\0.13.2\package.tgz
189 info preinstall react-bootstrap@0.13.2
190 verbose readDependencies using package.json deps
191 verbose readDependencies using package.json deps
192 silly resolved []
193 verbose about to build C:\xampp\htdocs\react-time-tracker\node_modules\react-bootstrap
194 info build C:\xampp\htdocs\react-time-tracker\node_modules\react-bootstrap
195 verbose linkStuff [ false,
195 verbose linkStuff   false,
195 verbose linkStuff   false,
195 verbose linkStuff   'C:\\xampp\\htdocs\\react-time-tracker\\node_modules' ]
196 info linkStuff react-bootstrap@0.13.2
197 verbose linkBins react-bootstrap@0.13.2
198 verbose linkMans react-bootstrap@0.13.2
199 verbose rebuildBundles react-bootstrap@0.13.2
200 info install react-bootstrap@0.13.2
201 info postinstall react-bootstrap@0.13.2
202 verbose already installed skipping react@>=0.12 C:\xampp\htdocs\react-time-tracker
203 silly resolved []
204 error peerinvalid The package react does not satisfy its siblings' peerDependencies requirements!
204 error peerinvalid Peer react-bootstrap@0.13.2 wants react@>=0.12
205 error System Windows_NT 6.2.9200
206 error command "C:\\Program Files\\nodejs\\\\node.exe" "C:\\Program Files\\nodejs\\node_modules\\npm\\bin\\npm-cli.js" "install" "react-bootstrap"
207 error cwd C:\xampp\htdocs\react-time-tracker
208 error node -v v0.10.34
209 error npm -v 1.4.28
210 error code EPEERINVALID
211 verbose exit [ 1, true ]
